// This is a generated file. Do not edit directly.

module k8s.io/kube-controller-manager

go 1.20

require (
	k8s.io/apimachinery v0.0.0
	k8s.io/cloud-provider v0.0.0
	k8s.io/controller-manager v0.0.0
)

require (
	github.com/go-logr/logr v1.2.3 // indirect
	github.com/gogo/protobuf v1.3.2 // indirect
	github.com/google/gofuzz v1.1.0 // indirect
	github.com/json-iterator/go v1.1.12 // indirect
	github.com/kr/text v0.2.0 // indirect
	github.com/modern-go/concurrent v0.0.0-20180306012644-bacd9c7ef1dd // indirect
	github.com/modern-go/reflect2 v1.0.2 // indirect
	github.com/rogpeppe/go-internal v1.11.0 // indirect
	golang.org/x/net v0.8.0 // indirect
	golang.org/x/text v0.8.0 // indirect
	gopkg.in/check.v1 v1.0.0-20201130134442-10cb98267c6c // indirect
	gopkg.in/inf.v0 v0.9.1 // indirect
	gopkg.in/yaml.v2 v2.4.0 // indirect
	k8s.io/component-base v0.0.0 // indirect
	k8s.io/klog/v2 v2.90.1 // indirect
	k8s.io/utils v0.0.0-20230209194617-a36077c30491 // indirect
	sigs.k8s.io/json v0.0.0-20221116044647-bc3834ca7abd // indirect
	sigs.k8s.io/structured-merge-diff/v4 v4.2.3 // indirect
)

replace (
	k8s.io/api => ../api
	k8s.io/apimachinery => ../apimachinery
	k8s.io/apiserver => ../apiserver
	k8s.io/client-go => ../client-go
	k8s.io/cloud-provider => ../cloud-provider
	k8s.io/component-base => ../component-base
	k8s.io/component-helpers => ../component-helpers
	k8s.io/controller-manager => ../controller-manager
	k8s.io/kms => ../kms
	k8s.io/kube-controller-manager => ../kube-controller-manager
)
